{
  "featured": [
    {
      "description": "",
      "rate": 0,
      "price_discount": 1,
      "thumbnail": "/images/icon/error.jpg",
      "number_current": 0,
      "price": 1,
      "number_total": 0,
      "name": "Product Name",
      "id": 1,
      "state": 0
    },
    {
      "description": "",
      "rate": 0,
      "price_discount": 1,
      "thumbnail": "/images/icon/error.jpg",
      "number_current": 0,
      "price": 1,
      "number_total": 0,
      "name": "Product Name",
      "id": 2,
      "state": 0
    },
    {
      "description": "",
      "rate": 0,
      "price_discount": 1,
      "thumbnail": "/images/icon/error.jpg",
      "number_current": 0,
      "price": 1,
      "number_total": 0,
      "name": "Product Name",
      "id": 3,
      "state": 0
    },
    {
      "description": "",
      "rate": 0,
      "price_discount": 1,
      "thumbnail": "/images/icon/error.jpg",
      "number_current": 0,
      "price": 1,
      "number_total": 0,
      "name": "Product Name",
      "id": 4,
      "state": 0
    },
    {
      "description": "",
      "rate": 0,
      "price_discount": 1,
      "thumbnail": "/images/icon/error.jpg",
      "number_current": 0,
      "price": 1,
      "number_total": 0,
      "name": "Product Name",
      "id": 5,
      "state": 0
    },
    {
      "description": "",
      "rate": 0,
      "price_discount": 1,
      "thumbnail": "/images/icon/error.jpg",
      "number_current": 0,
      "price": 1,
      "number_total": 0,
      "name": "Product Name",
      "id": 6,
      "state": 0
    },
    {
      "description": "",
      "rate": 0,
      "price_discount": 1,
      "thumbnail": "/images/icon/error.jpg",
      "number_current": 0,
      "price": 1,
      "number_total": 0,
      "name": "Product Name",
      "id": 7,
      "state": 0
    },
    {
      "description": "",
      "rate": 0,
      "price_discount": 1,
      "thumbnail": "/images/icon/error.jpg",
      "number_current": 0,
      "price": 1,
      "number_total": 0,
      "name": "Product Name",
      "id": 8,
      "state": 0
    },
    {
      "description": "",
      "rate": 0,
      "price_discount": 1,
      "thumbnail": "/images/icon/error.jpg",
      "number_current": 0,
      "price": 1,
      "number_total": 0,
      "name": "Product Name",
      "id": 9,
      "state": 0
    },
    {
      "description": "",
      "rate": 0,
      "price_discount": 1,
      "thumbnail": "/images/icon/error.jpg",
      "number_current": 0,
      "price": 1,
      "number_total": 0,
      "name": "Product Name",
      "id": 10,
      "state": 0
    },
    {
      "description": "",
      "rate": 0,
      "price_discount": 1,
      "thumbnail": "/images/icon/error.jpg",
      "number_current": 0,
      "price": 1,
      "number_total": 0,
      "name": "Product Name",
      "id": 11,
      "state": 0
    },
    {
      "description": "",
      "rate": 0,
      "price_discount": 1,
      "thumbnail": "/images/icon/error.jpg",
      "number_current": 0,
      "price": 1,
      "number_total": 0,
      "name": "Product Name",
      "id": 12,
      "state": 0
    }
  ],
  "mostview": [
    {
      "description": "",
      "rate": 0,
      "price_discount": 1,
      "thumbnail": "/images/icon/error.jpg",
      "number_current": 0,
      "price": 1,
      "number_total": 0,
      "name": "Product Name",
      "id": 1,
      "state": 0
    },
    {
      "description": "",
      "rate": 0,
      "price_discount": 1,
      "thumbnail": "/images/icon/error.jpg",
      "number_current": 0,
      "price": 1,
      "number_total": 0,
      "name": "Product Name",
      "id": 2,
      "state": 0
    },
    {
      "description": "",
      "rate": 0,
      "price_discount": 1,
      "thumbnail": "/images/icon/error.jpg",
      "number_current": 0,
      "price": 1,
      "number_total": 0,
      "name": "Product Name",
      "id": 3,
      "state": 0
    },
    {
      "description": "",
      "rate": 0,
      "price_discount": 1,
      "thumbnail": "/images/icon/error.jpg",
      "number_current": 0,
      "price": 1,
      "number_total": 0,
      "name": "Product Name",
      "id": 4,
      "state": 0
    },
    {
      "description": "",
      "rate": 0,
      "price_discount": 1,
      "thumbnail": "/images/icon/error.jpg",
      "number_current": 0,
      "price": 1,
      "number_total": 0,
      "name": "Product Name",
      "id": 5,
      "state": 0
    },
    {
      "description": "",
      "rate": 0,
      "price_discount": 1,
      "thumbnail": "/images/icon/error.jpg",
      "number_current": 0,
      "price": 1,
      "number_total": 0,
      "name": "Product Name",
      "id": 6,
      "state": 0
    },
    {
      "description": "",
      "rate": 0,
      "price_discount": 1,
      "thumbnail": "/images/icon/error.jpg",
      "number_current": 0,
      "price": 1,
      "number_total": 0,
      "name": "Product Name",
      "id": 7,
      "state": 0
    },
    {
      "description": "",
      "rate": 0,
      "price_discount": 1,
      "thumbnail": "/images/icon/error.jpg",
      "number_current": 0,
      "price": 1,
      "number_total": 0,
      "name": "Product Name",
      "id": 8,
      "state": 0
    },
    {
      "description": "",
      "rate": 0,
      "price_discount": 1,
      "thumbnail": "/images/icon/error.jpg",
      "number_current": 0,
      "price": 1,
      "number_total": 0,
      "name": "Product Name",
      "id": 9,
      "state": 0
    },
    {
      "description": "",
      "rate": 0,
      "price_discount": 1,
      "thumbnail": "/images/icon/error.jpg",
      "number_current": 0,
      "price": 1,
      "number_total": 0,
      "name": "Product Name",
      "id": 10,
      "state": 0
    },
    {
      "description": "",
      "rate": 0,
      "price_discount": 1,
      "thumbnail": "/images/icon/error.jpg",
      "number_current": 0,
      "price": 1,
      "number_total": 0,
      "name": "Product Name",
      "id": 11,
      "state": 0
    },
    {
      "description": "",
      "rate": 0,
      "price_discount": 1,
      "thumbnail": "/images/icon/error.jpg",
      "number_current": 0,
      "price": 1,
      "number_total": 0,
      "name": "Product Name",
      "id": 12,
      "state": 0
    }
  ],
  "bestsale": [
    {
      "description": "",
      "rate": 0,
      "price_discount": 1,
      "thumbnail": "/images/icon/error.jpg",
      "number_current": 0,
      "price": 1,
      "number_total": 0,
      "name": "Product Name",
      "id": 1,
      "state": 0
    },
    {
      "description": "",
      "rate": 0,
      "price_discount": 1,
      "thumbnail": "/images/icon/error.jpg",
      "number_current": 0,
      "price": 1,
      "number_total": 0,
      "name": "Product Name",
      "id": 2,
      "state": 0
    },
    {
      "description": "",
      "rate": 0,
      "price_discount": 1,
      "thumbnail": "/images/icon/error.jpg",
      "number_current": 0,
      "price": 1,
      "number_total": 0,
      "name": "Product Name",
      "id": 3,
      "state": 0
    },
    {
      "description": "",
      "rate": 0,
      "price_discount": 1,
      "thumbnail": "/images/icon/error.jpg",
      "number_current": 0,
      "price": 1,
      "number_total": 0,
      "name": "Product Name",
      "id": 4,
      "state": 0
    },
    {
      "description": "",
      "rate": 0,
      "price_discount": 1,
      "thumbnail": "/images/icon/error.jpg",
      "number_current": 0,
      "price": 1,
      "number_total": 0,
      "name": "Product Name",
      "id": 5,
      "state": 0
    },
    {
      "description": "",
      "rate": 0,
      "price_discount": 1,
      "thumbnail": "/images/icon/error.jpg",
      "number_current": 0,
      "price": 1,
      "number_total": 0,
      "name": "Product Name",
      "id": 6,
      "state": 0
    },
    {
      "description": "",
      "rate": 0,
      "price_discount": 1,
      "thumbnail": "/images/icon/error.jpg",
      "number_current": 0,
      "price": 1,
      "number_total": 0,
      "name": "Product Name",
      "id": 7,
      "state": 0
    },
    {
      "description": "",
      "rate": 0,
      "price_discount": 1,
      "thumbnail": "/images/icon/error.jpg",
      "number_current": 0,
      "price": 1,
      "number_total": 0,
      "name": "Product Name",
      "id": 8,
      "state": 0
    },
    {
      "description": "",
      "rate": 0,
      "price_discount": 1,
      "thumbnail": "/images/icon/error.jpg",
      "number_current": 0,
      "price": 1,
      "number_total": 0,
      "name": "Product Name",
      "id": 9,
      "state": 0
    },
    {
      "description": "",
      "rate": 0,
      "price_discount": 1,
      "thumbnail": "/images/icon/error.jpg",
      "number_current": 0,
      "price": 1,
      "number_total": 0,
      "name": "Product Name",
      "id": 10,
      "state": 0
    },
    {
      "description": "",
      "rate": 0,
      "price_discount": 1,
      "thumbnail": "/images/icon/error.jpg",
      "number_current": 0,
      "price": 1,
      "number_total": 0,
      "name": "Product Name",
      "id": 11,
      "state": 0
    },
    {
      "description": "",
      "rate": 0,
      "price_discount": 1,
      "thumbnail": "/images/icon/error.jpg",
      "number_current": 0,
      "price": 1,
      "number_total": 0,
      "name": "Product Name",
      "id": 12,
      "state": 0
    }
  ],
  "toprate": [
    {
      "description": "",
      "rate": 0,
      "price_discount": 1,
      "thumbnail": "/images/icon/error.jpg",
      "number_current": 0,
      "price": 1,
      "number_total": 0,
      "name": "Product Name",
      "id": 1,
      "state": 0
    },
    {
      "description": "",
      "rate": 0,
      "price_discount": 1,
      "thumbnail": "/images/icon/error.jpg",
      "number_current": 0,
      "price": 1,
      "number_total": 0,
      "name": "Product Name",
      "id": 2,
      "state": 0
    },
    {
      "description": "",
      "rate": 0,
      "price_discount": 1,
      "thumbnail": "/images/icon/error.jpg",
      "number_current": 0,
      "price": 1,
      "number_total": 0,
      "name": "Product Name",
      "id": 3,
      "state": 0
    },
    {
      "description": "",
      "rate": 0,
      "price_discount": 1,
      "thumbnail": "/images/icon/error.jpg",
      "number_current": 0,
      "price": 1,
      "number_total": 0,
      "name": "Product Name",
      "id": 4,
      "state": 0
    },
    {
      "description": "",
      "rate": 0,
      "price_discount": 1,
      "thumbnail": "/images/icon/error.jpg",
      "number_current": 0,
      "price": 1,
      "number_total": 0,
      "name": "Product Name",
      "id": 5,
      "state": 0
    },
    {
      "description": "",
      "rate": 0,
      "price_discount": 1,
      "thumbnail": "/images/icon/error.jpg",
      "number_current": 0,
      "price": 1,
      "number_total": 0,
      "name": "Product Name",
      "id": 6,
      "state": 0
    },
    {
      "description": "",
      "rate": 0,
      "price_discount": 1,
      "thumbnail": "/images/icon/error.jpg",
      "number_current": 0,
      "price": 1,
      "number_total": 0,
      "name": "Product Name",
      "id": 7,
      "state": 0
    },
    {
      "description": "",
      "rate": 0,
      "price_discount": 1,
      "thumbnail": "/images/icon/error.jpg",
      "number_current": 0,
      "price": 1,
      "number_total": 0,
      "name": "Product Name",
      "id": 8,
      "state": 0
    },
    {
      "description": "",
      "rate": 0,
      "price_discount": 1,
      "thumbnail": "/images/icon/error.jpg",
      "number_current": 0,
      "price": 1,
      "number_total": 0,
      "name": "Product Name",
      "id": 9,
      "state": 0
    },
    {
      "description": "",
      "rate": 0,
      "price_discount": 1,
      "thumbnail": "/images/icon/error.jpg",
      "number_current": 0,
      "price": 1,
      "number_total": 0,
      "name": "Product Name",
      "id": 10,
      "state": 0
    },
    {
      "description": "",
      "rate": 0,
      "price_discount": 1,
      "thumbnail": "/images/icon/error.jpg",
      "number_current": 0,
      "price": 1,
      "number_total": 0,
      "name": "Product Name",
      "id": 11,
      "state": 0
    },
    {
      "description": "",
      "rate": 0,
      "price_discount": 1,
      "thumbnail": "/images/icon/error.jpg",
      "number_current": 0,
      "price": 1,
      "number_total": 0,
      "name": "Product Name",
      "id": 12,
      "state": 0
    }
  ],
  "recommend": [
    {
      "description": "",
      "rate": 0,
      "price_discount": 1,
      "thumbnail": "/images/icon/error.jpg",
      "number_current": 0,
      "price": 1,
      "number_total": 0,
      "name": "Product Name",
      "id": 1,
      "state": 0
    },
    {
      "description": "",
      "rate": 0,
      "price_discount": 1,
      "thumbnail": "/images/icon/error.jpg",
      "number_current": 0,
      "price": 1,
      "number_total": 0,
      "name": "Product Name",
      "id": 2,
      "state": 0
    },
    {
      "description": "",
      "rate": 0,
      "price_discount": 1,
      "thumbnail": "/images/icon/error.jpg",
      "number_current": 0,
      "price": 1,
      "number_total": 0,
      "name": "Product Name",
      "id": 3,
      "state": 0
    },
    {
      "description": "",
      "rate": 0,
      "price_discount": 1,
      "thumbnail": "/images/icon/error.jpg",
      "number_current": 0,
      "price": 1,
      "number_total": 0,
      "name": "Product Name",
      "id": 4,
      "state": 0
    },
    {
      "description": "",
      "rate": 0,
      "price_discount": 1,
      "thumbnail": "/images/icon/error.jpg",
      "number_current": 0,
      "price": 1,
      "number_total": 0,
      "name": "Product Name",
      "id": 5,
      "state": 0
    },
    {
      "description": "",
      "rate": 0,
      "price_discount": 1,
      "thumbnail": "/images/icon/error.jpg",
      "number_current": 0,
      "price": 1,
      "number_total": 0,
      "name": "Product Name",
      "id": 6,
      "state": 0
    },
    {
      "description": "",
      "rate": 0,
      "price_discount": 1,
      "thumbnail": "/images/icon/error.jpg",
      "number_current": 0,
      "price": 1,
      "number_total": 0,
      "name": "Product Name",
      "id": 7,
      "state": 0
    },
    {
      "description": "",
      "rate": 0,
      "price_discount": 1,
      "thumbnail": "/images/icon/error.jpg",
      "number_current": 0,
      "price": 1,
      "number_total": 0,
      "name": "Product Name",
      "id": 8,
      "state": 0
    },
    {
      "description": "",
      "rate": 0,
      "price_discount": 1,
      "thumbnail": "/images/icon/error.jpg",
      "number_current": 0,
      "price": 1,
      "number_total": 0,
      "name": "Product Name",
      "id": 9,
      "state": 0
    },
    {
      "description": "",
      "rate": 0,
      "price_discount": 1,
      "thumbnail": "/images/icon/error.jpg",
      "number_current": 0,
      "price": 1,
      "number_total": 0,
      "name": "Product Name",
      "id": 10,
      "state": 0
    },
    {
      "description": "",
      "rate": 0,
      "price_discount": 1,
      "thumbnail": "/images/icon/error.jpg",
      "number_current": 0,
      "price": 1,
      "number_total": 0,
      "name": "Product Name",
      "id": 11,
      "state": 0
    },
    {
      "description": "",
      "rate": 0,
      "price_discount": 1,
      "thumbnail": "/images/icon/error.jpg",
      "number_current": 0,
      "price": 1,
      "number_total": 0,
      "name": "Product Name",
      "id": 12,
      "state": 0
    }
  ],
  "viewhistory": [
    {
      "description": "",
      "rate": 0,
      "price_discount": 1,
      "thumbnail": "/images/icon/error.jpg",
      "number_current": 0,
      "price": 1,
      "number_total": 0,
      "name": "Product Name",
      "id": 1,
      "state": 0
    },
    {
      "description": "",
      "rate": 0,
      "price_discount": 1,
      "thumbnail": "/images/icon/error.jpg",
      "number_current": 0,
      "price": 1,
      "number_total": 0,
      "name": "Product Name",
      "id": 2,
      "state": 0
    },
    {
      "description": "",
      "rate": 0,
      "price_discount": 1,
      "thumbnail": "/images/icon/error.jpg",
      "number_current": 0,
      "price": 1,
      "number_total": 0,
      "name": "Product Name",
      "id": 3,
      "state": 0
    },
    {
      "description": "",
      "rate": 0,
      "price_discount": 1,
      "thumbnail": "/images/icon/error.jpg",
      "number_current": 0,
      "price": 1,
      "number_total": 0,
      "name": "Product Name",
      "id": 4,
      "state": 0
    },
    {
      "description": "",
      "rate": 0,
      "price_discount": 1,
      "thumbnail": "/images/icon/error.jpg",
      "number_current": 0,
      "price": 1,
      "number_total": 0,
      "name": "Product Name",
      "id": 5,
      "state": 0
    },
    {
      "description": "",
      "rate": 0,
      "price_discount": 1,
      "thumbnail": "/images/icon/error.jpg",
      "number_current": 0,
      "price": 1,
      "number_total": 0,
      "name": "Product Name",
      "id": 6,
      "state": 0
    },
    {
      "description": "",
      "rate": 0,
      "price_discount": 1,
      "thumbnail": "/images/icon/error.jpg",
      "number_current": 0,
      "price": 1,
      "number_total": 0,
      "name": "Product Name",
      "id": 7,
      "state": 0
    },
    {
      "description": "",
      "rate": 0,
      "price_discount": 1,
      "thumbnail": "/images/icon/error.jpg",
      "number_current": 0,
      "price": 1,
      "number_total": 0,
      "name": "Product Name",
      "id": 8,
      "state": 0
    },
    {
      "description": "",
      "rate": 0,
      "price_discount": 1,
      "thumbnail": "/images/icon/error.jpg",
      "number_current": 0,
      "price": 1,
      "number_total": 0,
      "name": "Product Name",
      "id": 9,
      "state": 0
    },
    {
      "description": "",
      "rate": 0,
      "price_discount": 1,
      "thumbnail": "/images/icon/error.jpg",
      "number_current": 0,
      "price": 1,
      "number_total": 0,
      "name": "Product Name",
      "id": 10,
      "state": 0
    },
    {
      "description": "",
      "rate": 0,
      "price_discount": 1,
      "thumbnail": "/images/icon/error.jpg",
      "number_current": 0,
      "price": 1,
      "number_total": 0,
      "name": "Product Name",
      "id": 11,
      "state": 0
    },
    {
      "description": "",
      "rate": 0,
      "price_discount": 1,
      "thumbnail": "/images/icon/error.jpg",
      "number_current": 0,
      "price": 1,
      "number_total": 0,
      "name": "Product Name",
      "id": 12,
      "state": 0
    }
  ],
  "slideshow": []
}